{
    "modules": [
        {
            "config": {
                "position": [
                    528,
                    167
                ]
            },
            "name": "New Model Object",
            "value": {
                "actionGroup": {
                    "_default0_list": true,
                    "_default1_show": false,
                    "_default2_new_create": false,
                    "_default3_edit_update": false,
                    "_default4_delete": false,
                    "customActions": [
                        "log"
                    ]
                },
                "name": "Log",
                "objectsettings": {
                    "addDeletedField": true,
                    "addHiddenField": true,
                    "addStarttimeEndtimeFields": true,
                    "aggregateRoot": true,
                    "categorizable": false,
                    "description": "",
                    "mapToTable": "",
                    "parentClass": "",
                    "sorting": false,
                    "type": "Entity",
                    "uid": "289736729277"
                },
                "propertyGroup": {
                    "properties": [
                        {
                            "allowedFileTypes": "",
                            "maxItems": "1",
                            "propertyDescription": "",
                            "propertyIsExcludeField": true,
                            "propertyIsRequired": false,
                            "propertyName": "usergroup",
                            "propertyType": "Integer",
                            "uid": "1472096276752"
                        },
                        {
                            "allowedFileTypes": "",
                            "maxItems": "1",
                            "propertyDescription": "",
                            "propertyIsExcludeField": true,
                            "propertyIsRequired": false,
                            "propertyName": "usergroupTitle",
                            "propertyType": "String",
                            "uid": "1492617019995"
                        },
                        {
                            "allowedFileTypes": "",
                            "maxItems": "1",
                            "propertyDescription": "",
                            "propertyIsExcludeField": true,
                            "propertyIsRequired": false,
                            "propertyName": "user",
                            "propertyType": "Integer",
                            "uid": "313590389897"
                        },
                        {
                            "allowedFileTypes": "",
                            "maxItems": "1",
                            "propertyDescription": "",
                            "propertyIsExcludeField": true,
                            "propertyIsRequired": false,
                            "propertyName": "userTitle",
                            "propertyType": "String",
                            "uid": "204357925617"
                        },
                        {
                            "allowedFileTypes": "",
                            "maxItems": "1",
                            "propertyDescription": "",
                            "propertyIsExcludeField": true,
                            "propertyIsRequired": false,
                            "propertyName": "page",
                            "propertyType": "Integer",
                            "uid": "885640852423"
                        },
                        {
                            "allowedFileTypes": "",
                            "maxItems": "1",
                            "propertyDescription": "",
                            "propertyIsExcludeField": true,
                            "propertyIsRequired": false,
                            "propertyName": "pagePath",
                            "propertyType": "Text",
                            "uid": "610844710718"
                        },
                        {
                            "allowedFileTypes": "",
                            "maxItems": "1",
                            "propertyDescription": "",
                            "propertyIsExcludeField": true,
                            "propertyIsRequired": false,
                            "propertyName": "access",
                            "propertyType": "DateTime",
                            "uid": "600749962523"
                        }
                    ]
                },
                "relationGroup": {
                    "relations": []
                }
            }
        }
    ],
    "properties": {
        "backendModules": [
            {
                "actions": {
                    "controllerActionCombinations": "Log => list"
                },
                "description": "",
                "key": "hiveextfelogintracking",
                "mainModule": "web",
                "name": "Track logins",
                "tabLabel": "Track logins"
            }
        ],
        "description": "",
        "emConf": {
            "category": "plugin",
            "custom_category": "",
            "dependsOn": "typo3 => 7.6.0-0.0.0\nfelogin => 7.6.0-0.0.0\n",
            "disableLocalization": false,
            "disableVersioning": false,
            "skipGenerateDocumentationTemplate": false,
            "sourceLanguage": "en",
            "state": "stable",
            "targetVersion": "8.6.0-8.6.99",
            "version": "8.7.0"
        },
        "extensionKey": "hive_ext_felogin_tracking",
        "name": "hive_ext_felogin_tracking",
        "originalExtensionKey": "hive_ext_felogin_tracking",
        "originalVendorName": "HIVE",
        "persons": [
            {
                "company": "teufels GmbH",
                "email": "a.hafner@teufels.com",
                "name": "Andreas Hafner",
                "role": "Developer"
            },
            {
                "company": "teufels GmbH",
                "email": "d.hilser@teufels.com",
                "name": "Dominik Hilser",
                "role": "Developer"
            },
            {
                "company": "teufels GmbH",
                "email": "g.kathan@teufels.com",
                "name": "Georg Kathan",
                "role": "Developer"
            },
            {
                "company": "teufels GmbH",
                "email": "h.krueger@teufels.com",
                "name": "Hendrik Kr\u00fcger",
                "role": "Developer"
            },
            {
                "company": "teufels GmbH",
                "email": "j.rodriguez@teufels.com",
                "name": "Josymar Escalona Rodriguez",
                "role": "Developer"
            },
            {
                "company": "teufels GmbH",
                "email": "p.ennen@teufels.com",
                "name": "Perrin Ennen",
                "role": "Developer"
            },
            {
                "company": "teufels GmbH",
                "email": "t.bittner@teufels.com",
                "name": "Timo Bittner",
                "role": "Developer"
            }
        ],
        "plugins": [
            {
                "actions": {
                    "controllerActionCombinations": "Log => log",
                    "noncacheableActions": "Log => log",
                    "switchableActions": ""
                },
                "key": "hiveextfelogintrackinglog",
                "name": "hive_ext_felogin_tracking :: log"
            }
        ],
        "vendorName": "HIVE"
    },
    "wires": [],
    "log": {
        "last_modified": "2017-07-04 12:06",
        "extension_builder_version": "8.6.0",
        "be_user": " (1)"
    }
}